<svg xmlns="http://www.w3.org/2000/svg" width="15.889" height="16" viewBox="0 0 15.889 16">
  <g id="icon_logs" transform="translate(-29 -117)">
    <rect id="bg_icon" width="15.889" height="15.889" transform="translate(29 117)" fill="none"/>
    <g id="Group_2387" data-name="Group 2387" transform="translate(22 115.002)">
      <path id="Path_11216" data-name="Path 11216" d="M24,28.772a1,1,0,1,0-1-1A1,1,0,0,0,24,28.772Z" transform="translate(-9.334 -16.517)" fill="#fff"/>
      <path id="Path_11217" data-name="Path 11217" d="M20,5.812H17.513a1,1,0,0,1-1-1V2.335A1,1,0,0,1,16.572,2H10A1,1,0,0,0,9,3V17a1,1,0,0,0,1,1h9.333a1,1,0,0,0,1-1V5.752A.988.988,0,0,1,20,5.812ZM11.665,4.479h2a.333.333,0,1,1,0,.667h-2a.333.333,0,0,1,0-.667Zm6,11.445h-6a.333.333,0,0,1,0-.667h6a.333.333,0,1,1,0,.667ZM12.446,9.4a.338.338,0,0,1,.1-.263.32.32,0,0,1,.267-.1l.973.087.627-.75a.331.331,0,0,1,.51,0l.627.75.973-.087a.334.334,0,0,1,.363.36l-.09.973.753.627a.334.334,0,0,1,0,.513l-.753.627.09.973a.338.338,0,0,1-.1.263.33.33,0,0,1-.267.1l-.973-.087-.627.75a.331.331,0,0,1-.51,0l-.627-.75-.973.087a.334.334,0,0,1-.267-.1.338.338,0,0,1-.1-.263l.09-.973-.75-.627a.334.334,0,0,1,0-.513l.75-.627Zm5.218-2.143h-6a.333.333,0,0,1,0-.667h6a.333.333,0,1,1,0,.667Z" transform="translate(0 -0.003)" fill="#fff"/>
      <path id="Path_11218" data-name="Path 11218" d="M33.873,5.142H36.36a.332.332,0,0,0,.307-.207.329.329,0,0,0-.073-.36c-.623-.627-1.757-1.757-2.483-2.48a.335.335,0,0,0-.363-.073.339.339,0,0,0-.207.31V4.809A.334.334,0,0,0,33.873,5.142Z" transform="translate(-16.361 0)" fill="#fff"/>
    </g>
  </g>
</svg>
