<svg xmlns="http://www.w3.org/2000/svg" width="16.5" height="16.5" viewBox="0 0 16.5 16.5">
  <g id="icon_exchange" transform="translate(-29.75 -115.75)">
    <rect id="bg_icon" width="16" height="16" transform="translate(30 116)" fill="none"/>
    <g id="Group_2126" data-name="Group 2126" transform="translate(30 132) rotate(-90)">
      <path id="Path_1430" data-name="Path 1430" d="M4.679,9.285,0,4.523,4.679,0V3.047h4.41v3.07H4.679Z" transform="translate(0 16) rotate(-90)" fill="#fff" stroke="#fff" stroke-linecap="round" stroke-linejoin="round" stroke-width="0.5"/>
      <path id="Path_1431" data-name="Path 1431" d="M4.679,0,0,4.761,4.679,9.285V6.238h4.41V3.168H4.679Z" transform="translate(16) rotate(90)" fill="#fff" stroke="#fff" stroke-linecap="round" stroke-linejoin="round" stroke-width="0.5"/>
    </g>
  </g>
</svg>
